R - Abalone - Regression Methods, Regularization, and PCA
…
## [1] 3134

nrow(abalone_test)

## [1] 1043

25% of the data is assigned to the test set.

Exploratory analysis

Summary statistics

abalone_train

## # A tibble: 3,134 x 9
##    sex   length diameter height weight_whole weight_shucked weight_viscera
##    <fct>  <dbl>    <dbl>  <dbl>        <dbl>          <dbl>          <dbl>
##  1 M      0.35     0.265  0.09         0.226         0.0995         0.0485
##  2 F      0.53     0.42   0.135        0.677         0.256          0.142 
##  3 I      0.33     0.255  0.08         0.205         0.0895         0.0395
##  4 I      0.425    0.3    0.095        0.352         0.141          0.0775
##  5 F      0.53     0.415  0.15         0.778         0.237          0.142 
##  6 M      0.475    0.37   0.125        0.509         0.216          0.112 
##  7 M      0.43     0.35   0.11         0.406         0.168          0.081 
##  8 M      0.49     0.38   0.135        0.542         0.218          0.095 
##  9 F      0.535    0.405  0.145        0.684         0.272          0.171 
## 10 F      0.47     0.355  0.1          0.476         0.168          0.0805
## # ... with 3,124 more rows, and 2 more variables: weight_shell <dbl>,
## #   rings <dbl>
…
